{
  "images" : [
    {
      "resizing" : {
        "mode" : "3-part-vertical",
        "center" : {
          "mode" : "fill",
          "height" : 1
        },
        "capInsets" : {
          "top" : 12,
          "bottom" : 9
        }
      },
      "idiom" : "universal",
      "filename" : "graph-bar-red.png",
      "scale" : "1x"
    },
    {
      "resizing" : {
        "mode" : "3-part-vertical",
        "center" : {
          "mode" : "fill",
          "height" : 1
        },
        "capInsets" : {
          "top" : 29,
          "bottom" : 14
        }
      },
      "idiom" : "universal",
      "filename" : "graph-bar-red@2x.png",
      "scale" : "2x"
    },
    {
      "idiom" : "universal",
      "scale" : "3x"
    }
  ],
  "info" : {
    "version" : 1,
    "author" : "xcode"
  }
}